"TOA5","STN_NAME","CR1000X","15027","CR1000X.Std.04.02","CPU:CR1000X program 30Oct.cr1x","3623","DT_15_Min"
"TIMESTAMP","RECORD","TC_X_Avg(1)","TC_X_Avg(2)","TC_X_Avg(3)","TC_X_Avg(4)","TC_X_Avg(5)","TC_X_Avg(6)","TC_X_Avg(7)","TC_X_Avg(8)","TC_X_Avg(9)","TC_X_Avg(10)","TC_X_Avg(11)","TC_X_Avg(12)","TC_X_Avg(13)","TC_X_Avg(14)","TC_X_Avg(15)","TC_X_Avg(16)","TC_X_Avg(17)","TC_X_Avg(18)","TC_X_Avg(19)","TC_X_Avg(20)","TC_X_Avg(21)","TC_X_Avg(22)","TC_X_Avg(23)","TC_X_Avg(24)","TC_X_Max(1)","TC_X_Max(2)","TC_X_Max(3)","TC_X_Max(4)","TC_X_Max(5)","TC_X_Max(6)","TC_X_Max(7)","TC_X_Max(8)","TC_X_Max(9)","TC_X_Max(10)","TC_X_Max(11)","TC_X_Max(12)","TC_X_Max(13)","TC_X_Max(14)","TC_X_Max(15)","TC_X_Max(16)","TC_X_Max(17)","TC_X_Max(18)","TC_X_Max(19)","TC_X_Max(20)","TC_X_Max(21)","TC_X_Max(22)","TC_X_Max(23)","TC_X_Max(24)","TC_X_TMx(1)","TC_X_TMx(2)","TC_X_TMx(3)","TC_X_TMx(4)","TC_X_TMx(5)","TC_X_TMx(6)","TC_X_TMx(7)","TC_X_TMx(8)","TC_X_TMx(9)","TC_X_TMx(10)","TC_X_TMx(11)","TC_X_TMx(12)","TC_X_TMx(13)","TC_X_TMx(14)","TC_X_TMx(15)","TC_X_TMx(16)","TC_X_TMx(17)","TC_X_TMx(18)","TC_X_TMx(19)","TC_X_TMx(20)","TC_X_TMx(21)","TC_X_TMx(22)","TC_X_TMx(23)","TC_X_TMx(24)","TC_X_Min(1)","TC_X_Min(2)","TC_X_Min(3)","TC_X_Min(4)","TC_X_Min(5)","TC_X_Min(6)","TC_X_Min(7)","TC_X_Min(8)","TC_X_Min(9)","TC_X_Min(10)","TC_X_Min(11)","TC_X_Min(12)","TC_X_Min(13)","TC_X_Min(14)","TC_X_Min(15)","TC_X_Min(16)","TC_X_Min(17)","TC_X_Min(18)","TC_X_Min(19)","TC_X_Min(20)","TC_X_Min(21)","TC_X_Min(22)","TC_X_Min(23)","TC_X_Min(24)","TC_X_TMn(1)","TC_X_TMn(2)","TC_X_TMn(3)","TC_X_TMn(4)","TC_X_TMn(5)","TC_X_TMn(6)","TC_X_TMn(7)","TC_X_TMn(8)","TC_X_TMn(9)","TC_X_TMn(10)","TC_X_TMn(11)","TC_X_TMn(12)","TC_X_TMn(13)","TC_X_TMn(14)","TC_X_TMn(15)","TC_X_TMn(16)","TC_X_TMn(17)","TC_X_TMn(18)","TC_X_TMn(19)","TC_X_TMn(20)","TC_X_TMn(21)","TC_X_TMn(22)","TC_X_TMn(23)","TC_X_TMn(24)","ENC_AIRTEMP_AVG_15","ENC_AIRTEMP_MAX_15","TC_Ref_Temp_TMx","ENC_AIRTEMP_MIN_15","TC_Ref_Temp_TMn","MAST_AIRTEMP_AVG_15","MAST_AIRTEMP_MAX_15","MAST_AIRTEMP_TMx","MAST_AIRTEMP_MIN_15","MAST_AIRTEMP_TMn"
"TS","RN","","","","","","","","","","","","","","","","","","","","","","","","","","","","","","","","","","","","","","","","","","","","","","","","","","","","","","","","","","","","","","","","","","","","","","","","","","","","","","","","","","","","","","","","","","","","","","","","","","","","","","","","","","","","","","","","","","","","","","","","","","","","","","","","","",""
"","","Avg","Avg","Avg","Avg","Avg","Avg","Avg","Avg","Avg","Avg","Avg","Avg","Avg","Avg","Avg","Avg","Avg","Avg","Avg","Avg","Avg","Avg","Avg","Avg","Max","Max","Max","Max","Max","Max","Max","Max","Max","Max","Max","Max","Max","Max","Max","Max","Max","Max","Max","Max","Max","Max","Max","Max","TMx","TMx","TMx","TMx","TMx","TMx","TMx","TMx","TMx","TMx","TMx","TMx","TMx","TMx","TMx","TMx","TMx","TMx","TMx","TMx","TMx","TMx","TMx","TMx","Min","Min","Min","Min","Min","Min","Min","Min","Min","Min","Min","Min","Min","Min","Min","Min","Min","Min","Min","Min","Min","Min","Min","Min","TMn","TMn","TMn","TMn","TMn","TMn","TMn","TMn","TMn","TMn","TMn","TMn","TMn","TMn","TMn","TMn","TMn","TMn","TMn","TMn","TMn","TMn","TMn","TMn","Avg","Max","TMx","Min","TMn","Avg","Max","TMx","Min","TMn"
"2020-10-30 12:15:00",11,"NAN","NAN","NAN","NAN","NAN","NAN","NAN","NAN","NAN","NAN","NAN","NAN","NAN","NAN","NAN","NAN","NAN","NAN","NAN","NAN","NAN","NAN","NAN","NAN","NAN","NAN","NAN","NAN","NAN","NAN","NAN","NAN","NAN","NAN","NAN","NAN","NAN","NAN","NAN","NAN","NAN","NAN","NAN","NAN","NAN","NAN","NAN","NAN","2020-10-30 12:15:00","2020-10-30 12:15:00","2020-10-30 12:15:00","2020-10-30 12:15:00","2020-10-30 12:15:00","2020-10-30 12:15:00","2020-10-30 12:15:00","2020-10-30 12:15:00","2020-10-30 12:15:00","2020-10-30 12:15:00","2020-10-30 12:15:00","2020-10-30 12:15:00","2020-10-30 12:15:00","2020-10-30 12:15:00","2020-10-30 12:15:00","2020-10-30 12:15:00","2020-10-30 12:15:00","2020-10-30 12:15:00","2020-10-30 12:15:00","2020-10-30 12:15:00","2020-10-30 12:15:00","2020-10-30 12:15:00","2020-10-30 12:15:00","2020-10-30 12:15:00","NAN","NAN","NAN","NAN","NAN","NAN","NAN","NAN","NAN","NAN","NAN","NAN","NAN","NAN","NAN","NAN","NAN","NAN","NAN","NAN","NAN","NAN","NAN","NAN","2020-10-30 12:15:00","2020-10-30 12:15:00","2020-10-30 12:15:00","2020-10-30 12:15:00","2020-10-30 12:15:00","2020-10-30 12:15:00","2020-10-30 12:15:00","2020-10-30 12:15:00","2020-10-30 12:15:00","2020-10-30 12:15:00","2020-10-30 12:15:00","2020-10-30 12:15:00","2020-10-30 12:15:00","2020-10-30 12:15:00","2020-10-30 12:15:00","2020-10-30 12:15:00","2020-10-30 12:15:00","2020-10-30 12:15:00","2020-10-30 12:15:00","2020-10-30 12:15:00","2020-10-30 12:15:00","2020-10-30 12:15:00","2020-10-30 12:15:00","2020-10-30 12:15:00",23.46775,23.51303,"2020-10-30 12:15:00",23.42319,"2020-10-30 12:05:00","NAN","NAN","2020-10-30 12:15:00","NAN","2020-10-30 12:15:00"
"2020-10-30 12:30:00",12,"NAN","NAN","NAN","NAN","NAN","NAN","NAN","NAN","NAN","NAN","NAN","NAN","NAN","NAN","NAN","NAN","NAN","NAN","NAN","NAN","NAN","NAN","NAN","NAN","NAN","NAN","NAN","NAN","NAN","NAN","NAN","NAN","NAN","NAN","NAN","NAN","NAN","NAN","NAN","NAN","NAN","NAN","NAN","NAN","NAN","NAN","NAN","NAN","2020-10-30 12:30:00","2020-10-30 12:30:00","2020-10-30 12:30:00","2020-10-30 12:30:00","2020-10-30 12:30:00","2020-10-30 12:30:00","2020-10-30 12:30:00","2020-10-30 12:30:00","2020-10-30 12:30:00","2020-10-30 12:30:00","2020-10-30 12:30:00","2020-10-30 12:30:00","2020-10-30 12:30:00","2020-10-30 12:30:00","2020-10-30 12:30:00","2020-10-30 12:30:00","2020-10-30 12:30:00","2020-10-30 12:30:00","2020-10-30 12:30:00","2020-10-30 12:30:00","2020-10-30 12:30:00","2020-10-30 12:30:00","2020-10-30 12:30:00","2020-10-30 12:30:00","NAN","NAN","NAN","NAN","NAN","NAN","NAN","NAN","NAN","NAN","NAN","NAN","NAN","NAN","NAN","NAN","NAN","NAN","NAN","NAN","NAN","NAN","NAN","NAN","2020-10-30 12:30:00","2020-10-30 12:30:00","2020-10-30 12:30:00","2020-10-30 12:30:00","2020-10-30 12:30:00","2020-10-30 12:30:00","2020-10-30 12:30:00","2020-10-30 12:30:00","2020-10-30 12:30:00","2020-10-30 12:30:00","2020-10-30 12:30:00","2020-10-30 12:30:00","2020-10-30 12:30:00","2020-10-30 12:30:00","2020-10-30 12:30:00","2020-10-30 12:30:00","2020-10-30 12:30:00","2020-10-30 12:30:00","2020-10-30 12:30:00","2020-10-30 12:30:00","2020-10-30 12:30:00","2020-10-30 12:30:00","2020-10-30 12:30:00","2020-10-30 12:30:00",23.46653,23.54813,"2020-10-30 12:20:00",23.40799,"2020-10-30 12:30:00","NAN","NAN","2020-10-30 12:30:00","NAN","2020-10-30 12:30:00"
"2020-10-30 12:45:00",13,"NAN","NAN","NAN","NAN","NAN","NAN","NAN","NAN","NAN","NAN","NAN","NAN","NAN","NAN","NAN","NAN","NAN","NAN","NAN","NAN","NAN","NAN","NAN","NAN","NAN","NAN","NAN","NAN","NAN","NAN","NAN","NAN","NAN","NAN","NAN","NAN","NAN","NAN","NAN","NAN","NAN","NAN","NAN","NAN","NAN","NAN","NAN","NAN","2020-10-30 12:45:00","2020-10-30 12:45:00","2020-10-30 12:45:00","2020-10-30 12:45:00","2020-10-30 12:45:00","2020-10-30 12:45:00","2020-10-30 12:45:00","2020-10-30 12:45:00","2020-10-30 12:45:00","2020-10-30 12:45:00","2020-10-30 12:45:00","2020-10-30 12:45:00","2020-10-30 12:45:00","2020-10-30 12:45:00","2020-10-30 12:45:00","2020-10-30 12:45:00","2020-10-30 12:45:00","2020-10-30 12:45:00","2020-10-30 12:45:00","2020-10-30 12:45:00","2020-10-30 12:45:00","2020-10-30 12:45:00","2020-10-30 12:45:00","2020-10-30 12:45:00","NAN","NAN","NAN","NAN","NAN","NAN","NAN","NAN","NAN","NAN","NAN","NAN","NAN","NAN","NAN","NAN","NAN","NAN","NAN","NAN","NAN","NAN","NAN","NAN","2020-10-30 12:45:00","2020-10-30 12:45:00","2020-10-30 12:45:00","2020-10-30 12:45:00","2020-10-30 12:45:00","2020-10-30 12:45:00","2020-10-30 12:45:00","2020-10-30 12:45:00","2020-10-30 12:45:00","2020-10-30 12:45:00","2020-10-30 12:45:00","2020-10-30 12:45:00","2020-10-30 12:45:00","2020-10-30 12:45:00","2020-10-30 12:45:00","2020-10-30 12:45:00","2020-10-30 12:45:00","2020-10-30 12:45:00","2020-10-30 12:45:00","2020-10-30 12:45:00","2020-10-30 12:45:00","2020-10-30 12:45:00","2020-10-30 12:45:00","2020-10-30 12:45:00",23.48331,23.526,"2020-10-30 12:45:00",23.43939,"2020-10-30 12:35:00","NAN","NAN","2020-10-30 12:45:00","NAN","2020-10-30 12:45:00"
"2020-10-30 13:00:00",14,"NAN","NAN","NAN","NAN","NAN","NAN","NAN","NAN","NAN","NAN","NAN","NAN","NAN","NAN","NAN","NAN","NAN","NAN","NAN","NAN","NAN","NAN","NAN","NAN","NAN","NAN","NAN","NAN","NAN","NAN","NAN","NAN","NAN","NAN","NAN","NAN","NAN","NAN","NAN","NAN","NAN","NAN","NAN","NAN","NAN","NAN","NAN","NAN","2020-10-30 13:00:00","2020-10-30 13:00:00","2020-10-30 13:00:00","2020-10-30 13:00:00","2020-10-30 13:00:00","2020-10-30 13:00:00","2020-10-30 13:00:00","2020-10-30 13:00:00","2020-10-30 13:00:00","2020-10-30 13:00:00","2020-10-30 13:00:00","2020-10-30 13:00:00","2020-10-30 13:00:00","2020-10-30 13:00:00","2020-10-30 13:00:00","2020-10-30 13:00:00","2020-10-30 13:00:00","2020-10-30 13:00:00","2020-10-30 13:00:00","2020-10-30 13:00:00","2020-10-30 13:00:00","2020-10-30 13:00:00","2020-10-30 13:00:00","2020-10-30 13:00:00","NAN","NAN","NAN","NAN","NAN","NAN","NAN","NAN","NAN","NAN","NAN","NAN","NAN","NAN","NAN","NAN","NAN","NAN","NAN","NAN","NAN","NAN","NAN","NAN","2020-10-30 13:00:00","2020-10-30 13:00:00","2020-10-30 13:00:00","2020-10-30 13:00:00","2020-10-30 13:00:00","2020-10-30 13:00:00","2020-10-30 13:00:00","2020-10-30 13:00:00","2020-10-30 13:00:00","2020-10-30 13:00:00","2020-10-30 13:00:00","2020-10-30 13:00:00","2020-10-30 13:00:00","2020-10-30 13:00:00","2020-10-30 13:00:00","2020-10-30 13:00:00","2020-10-30 13:00:00","2020-10-30 13:00:00","2020-10-30 13:00:00","2020-10-30 13:00:00","2020-10-30 13:00:00","2020-10-30 13:00:00","2020-10-30 13:00:00","2020-10-30 13:00:00",23.58025,23.59467,"2020-10-30 12:55:00",23.56384,"2020-10-30 12:50:00","NAN","NAN","2020-10-30 13:00:00","NAN","2020-10-30 13:00:00"
